^D:\REPOS\CONSOLEROGUELIKE\CONSOLEROGUELIKE.CPP|D:\REPOS\CONSOLEROGUELIKE\ENTITY.CPP|D:\REPOS\CONSOLEROGUELIKE\GAMECONTROLLER.CPP
D:\REPOS\CONSOLEROGUELIKE\DEBUG\VC142.PDB
D:\REPOS\CONSOLEROGUELIKE\DEBUG\VC142.IDB
D:\REPOS\CONSOLEROGUELIKE\DEBUG\GAMECONTROLLER.OBJ
D:\REPOS\CONSOLEROGUELIKE\DEBUG\ENTITY.OBJ
D:\REPOS\CONSOLEROGUELIKE\DEBUG\CONSOLEROGUELIKE.OBJ
^D:\REPOS\CONSOLEROGUELIKE\CONSOLEROGUELIKE.CPP|D:\REPOS\CONSOLEROGUELIKE\ENTITY.CPP|D:\REPOS\CONSOLEROGUELIKE\PLAYER.CPP
D:\REPOS\CONSOLEROGUELIKE\DEBUG\VC142.PDB
D:\REPOS\CONSOLEROGUELIKE\DEBUG\VC142.IDB
D:\REPOS\CONSOLEROGUELIKE\DEBUG\PLAYER.OBJ
D:\REPOS\CONSOLEROGUELIKE\DEBUG\ENTITY.OBJ
D:\REPOS\CONSOLEROGUELIKE\DEBUG\CONSOLEROGUELIKE.OBJ
^D:\REPOS\CONSOLEROGUELIKE\CONSOLEROGUELIKE.CPP|D:\REPOS\CONSOLEROGUELIKE\PLAYER.CPP
D:\REPOS\CONSOLEROGUELIKE\DEBUG\VC142.PDB
D:\REPOS\CONSOLEROGUELIKE\DEBUG\VC142.IDB
D:\REPOS\CONSOLEROGUELIKE\DEBUG\PLAYER.OBJ
D:\REPOS\CONSOLEROGUELIKE\DEBUG\CONSOLEROGUELIKE.OBJ
^D:\REPOS\CONSOLEROGUELIKE\CONSOLEROGUELIKE.CPP|D:\REPOS\CONSOLEROGUELIKE\GAMECONTROLLER.CPP|D:\REPOS\CONSOLEROGUELIKE\MONSTER.CPP|D:\REPOS\CONSOLEROGUELIKE\PLAYER.CPP
D:\REPOS\CONSOLEROGUELIKE\DEBUG\VC142.PDB
D:\REPOS\CONSOLEROGUELIKE\DEBUG\VC142.IDB
D:\REPOS\CONSOLEROGUELIKE\DEBUG\PLAYER.OBJ
D:\REPOS\CONSOLEROGUELIKE\DEBUG\MONSTER.OBJ
D:\REPOS\CONSOLEROGUELIKE\DEBUG\GAMECONTROLLER.OBJ
D:\REPOS\CONSOLEROGUELIKE\DEBUG\CONSOLEROGUELIKE.OBJ
^D:\REPOS\CONSOLEROGUELIKE\GAMECONTROLLER.CPP|D:\REPOS\CONSOLEROGUELIKE\MONSTER.CPP|D:\REPOS\CONSOLEROGUELIKE\PLAYER.CPP
D:\REPOS\CONSOLEROGUELIKE\DEBUG\VC142.PDB
D:\REPOS\CONSOLEROGUELIKE\DEBUG\VC142.IDB
D:\REPOS\CONSOLEROGUELIKE\DEBUG\PLAYER.OBJ
D:\REPOS\CONSOLEROGUELIKE\DEBUG\MONSTER.OBJ
^D:\REPOS\CONSOLEROGUELIKE\CONSOLEROGUELIKE.CPP|D:\REPOS\CONSOLEROGUELIKE\ENTITY.CPP|D:\REPOS\CONSOLEROGUELIKE\GAMECONTROLLER.CPP|D:\REPOS\CONSOLEROGUELIKE\MONSTER.CPP|D:\REPOS\CONSOLEROGUELIKE\PLAYER.CPP
D:\REPOS\CONSOLEROGUELIKE\DEBUG\VC142.PDB
D:\REPOS\CONSOLEROGUELIKE\DEBUG\VC142.IDB
D:\REPOS\CONSOLEROGUELIKE\DEBUG\PLAYER.OBJ
D:\REPOS\CONSOLEROGUELIKE\DEBUG\GAMECONTROLLER.OBJ
D:\REPOS\CONSOLEROGUELIKE\DEBUG\ENTITY.OBJ
D:\REPOS\CONSOLEROGUELIKE\DEBUG\CONSOLEROGUELIKE.OBJ
^D:\REPOS\CONSOLEROGUELIKE\GAMECONTROLLER.CPP|D:\REPOS\CONSOLEROGUELIKE\MONSTER.CPP
D:\REPOS\CONSOLEROGUELIKE\DEBUG\VC142.PDB
D:\REPOS\CONSOLEROGUELIKE\DEBUG\VC142.IDB
D:\REPOS\CONSOLEROGUELIKE\DEBUG\MONSTER.OBJ
D:\REPOS\CONSOLEROGUELIKE\DEBUG\GAMECONTROLLER.OBJ
^D:\REPOS\CONSOLEROGUELIKE\ENTITY.CPP|D:\REPOS\CONSOLEROGUELIKE\PLAYER.CPP
D:\REPOS\CONSOLEROGUELIKE\DEBUG\VC142.PDB
D:\REPOS\CONSOLEROGUELIKE\DEBUG\VC142.IDB
D:\REPOS\CONSOLEROGUELIKE\DEBUG\PLAYER.OBJ
D:\REPOS\CONSOLEROGUELIKE\DEBUG\ENTITY.OBJ
^D:\REPOS\CONSOLEROGUELIKE\CONSOLEROGUELIKE.CPP|D:\REPOS\CONSOLEROGUELIKE\GAMECONTROLLER.CPP|D:\REPOS\CONSOLEROGUELIKE\MONSTER.CPP
D:\REPOS\CONSOLEROGUELIKE\DEBUG\VC142.PDB
D:\REPOS\CONSOLEROGUELIKE\DEBUG\VC142.IDB
D:\REPOS\CONSOLEROGUELIKE\DEBUG\MONSTER.OBJ
D:\REPOS\CONSOLEROGUELIKE\DEBUG\GAMECONTROLLER.OBJ
D:\REPOS\CONSOLEROGUELIKE\DEBUG\CONSOLEROGUELIKE.OBJ
^D:\REPOS\CONSOLEROGUELIKE\ENTITY.CPP|D:\REPOS\CONSOLEROGUELIKE\GAMECONTROLLER.CPP|D:\REPOS\CONSOLEROGUELIKE\MONSTER.CPP|D:\REPOS\CONSOLEROGUELIKE\PLAYER.CPP
D:\REPOS\CONSOLEROGUELIKE\DEBUG\VC142.PDB
D:\REPOS\CONSOLEROGUELIKE\DEBUG\VC142.IDB
D:\REPOS\CONSOLEROGUELIKE\DEBUG\PLAYER.OBJ
D:\REPOS\CONSOLEROGUELIKE\DEBUG\MONSTER.OBJ
D:\REPOS\CONSOLEROGUELIKE\DEBUG\GAMECONTROLLER.OBJ
D:\REPOS\CONSOLEROGUELIKE\DEBUG\ENTITY.OBJ
^D:\REPOS\CONSOLEROGUELIKE\MONSTER.CPP|D:\REPOS\CONSOLEROGUELIKE\PLAYER.CPP
D:\REPOS\CONSOLEROGUELIKE\DEBUG\VC142.PDB
D:\REPOS\CONSOLEROGUELIKE\DEBUG\VC142.IDB
D:\REPOS\CONSOLEROGUELIKE\DEBUG\PLAYER.OBJ
D:\REPOS\CONSOLEROGUELIKE\DEBUG\MONSTER.OBJ
^D:\REPOS\CONSOLEROGUELIKE\MONSTER.CPP
D:\REPOS\CONSOLEROGUELIKE\DEBUG\VC142.PDB
^D:\REPOS\CONSOLEROGUELIKE\CONSOLEROGUELIKE.CPP|D:\REPOS\CONSOLEROGUELIKE\GAMECONTROLLER.CPP
D:\REPOS\CONSOLEROGUELIKE\DEBUG\VC142.PDB
D:\REPOS\CONSOLEROGUELIKE\DEBUG\VC142.IDB
D:\REPOS\CONSOLEROGUELIKE\DEBUG\GAMECONTROLLER.OBJ
D:\REPOS\CONSOLEROGUELIKE\DEBUG\CONSOLEROGUELIKE.OBJ
^D:\REPOS\CONSOLEROGUELIKE\GAMECONTROLLER.CPP|D:\REPOS\CONSOLEROGUELIKE\PLAYER.CPP
D:\REPOS\CONSOLEROGUELIKE\DEBUG\VC142.PDB
D:\REPOS\CONSOLEROGUELIKE\DEBUG\VC142.IDB
D:\REPOS\CONSOLEROGUELIKE\DEBUG\GAMECONTROLLER.OBJ
^D:\REPOS\CONSOLEROGUELIKE\ENTITY.CPP|D:\REPOS\CONSOLEROGUELIKE\GAMECONTROLLER.CPP
D:\REPOS\CONSOLEROGUELIKE\DEBUG\VC142.PDB
D:\REPOS\CONSOLEROGUELIKE\DEBUG\VC142.IDB
D:\REPOS\CONSOLEROGUELIKE\DEBUG\GAMECONTROLLER.OBJ
D:\REPOS\CONSOLEROGUELIKE\DEBUG\ENTITY.OBJ
^D:\REPOS\CONSOLEROGUELIKE\ENTITY.CPP|D:\REPOS\CONSOLEROGUELIKE\GAMECONTROLLER.CPP|D:\REPOS\CONSOLEROGUELIKE\PLAYER.CPP
D:\REPOS\CONSOLEROGUELIKE\DEBUG\VC142.PDB
D:\REPOS\CONSOLEROGUELIKE\DEBUG\VC142.IDB
D:\REPOS\CONSOLEROGUELIKE\DEBUG\PLAYER.OBJ
D:\REPOS\CONSOLEROGUELIKE\DEBUG\GAMECONTROLLER.OBJ
D:\REPOS\CONSOLEROGUELIKE\DEBUG\ENTITY.OBJ
^D:\REPOS\CONSOLEROGUELIKE\CONSOLEROGUELIKE.CPP|D:\REPOS\CONSOLEROGUELIKE\GAMECONTROLLER.CPP|D:\REPOS\CONSOLEROGUELIKE\PLAYER.CPP
D:\REPOS\CONSOLEROGUELIKE\DEBUG\VC142.PDB
D:\REPOS\CONSOLEROGUELIKE\DEBUG\VC142.IDB
D:\REPOS\CONSOLEROGUELIKE\DEBUG\PLAYER.OBJ
D:\REPOS\CONSOLEROGUELIKE\DEBUG\GAMECONTROLLER.OBJ
D:\REPOS\CONSOLEROGUELIKE\DEBUG\CONSOLEROGUELIKE.OBJ
^D:\REPOS\CONSOLEROGUELIKE\CONSOLEROGUELIKE.CPP|D:\REPOS\CONSOLEROGUELIKE\ENTITY.CPP|D:\REPOS\CONSOLEROGUELIKE\GAMECONTROLLER.CPP|D:\REPOS\CONSOLEROGUELIKE\PLAYER.CPP
D:\REPOS\CONSOLEROGUELIKE\DEBUG\VC142.PDB
D:\REPOS\CONSOLEROGUELIKE\DEBUG\VC142.IDB
D:\REPOS\CONSOLEROGUELIKE\DEBUG\PLAYER.OBJ
D:\REPOS\CONSOLEROGUELIKE\DEBUG\GAMECONTROLLER.OBJ
D:\REPOS\CONSOLEROGUELIKE\DEBUG\ENTITY.OBJ
D:\REPOS\CONSOLEROGUELIKE\DEBUG\CONSOLEROGUELIKE.OBJ
^D:\REPOS\CONSOLEROGUELIKE\CONSOLEROGUELIKE.CPP
D:\REPOS\CONSOLEROGUELIKE\DEBUG\VC142.PDB
^D:\REPOS\CONSOLEROGUELIKE\ENTITY.CPP
D:\REPOS\CONSOLEROGUELIKE\DEBUG\VC142.PDB
^D:\REPOS\CONSOLEROGUELIKE\GAMECONTROLLER.CPP
D:\REPOS\CONSOLEROGUELIKE\DEBUG\VC142.PDB
^D:\REPOS\CONSOLEROGUELIKE\PLAYER.CPP
D:\REPOS\CONSOLEROGUELIKE\DEBUG\VC142.PDB
